-------------------------------------------------------------------------------
Test set: org.apache.tika.metadata.serialization.JsonMetadataTest
-------------------------------------------------------------------------------
Tests run: 5, Failures: 0, Errors: 0, Skipped: 0, Time elapsed: 1.109 sec
