-------------------------------------------------------------------------------
Test set: org.apache.tika.parser.pkg.ZipParserTest
-------------------------------------------------------------------------------
Tests run: 5, Failures: 0, Errors: 0, Skipped: 0, Time elapsed: 0.238 sec
