-------------------------------------------------------------------------------
Test set: org.apache.tika.parser.mail.RFC822ParserTest
-------------------------------------------------------------------------------
Tests run: 8, Failures: 0, Errors: 0, Skipped: 0, Time elapsed: 0.321 sec
