-------------------------------------------------------------------------------
Test set: org.apache.tika.parser.image.ImageMetadataExtractorTest
-------------------------------------------------------------------------------
Tests run: 6, Failures: 0, Errors: 0, Skipped: 0, Time elapsed: 0.344 sec
