-------------------------------------------------------------------------------
Test set: org.apache.tika.parser.txt.CharsetDetectorTest
-------------------------------------------------------------------------------
Tests run: 2, Failures: 0, Errors: 0, Skipped: 0, Time elapsed: 0.056 sec
