-------------------------------------------------------------------------------
Test set: org.apache.tika.parser.pkg.Bzip2ParserTest
-------------------------------------------------------------------------------
Tests run: 2, Failures: 0, Errors: 0, Skipped: 0, Time elapsed: 0.243 sec
