-------------------------------------------------------------------------------
Test set: org.apache.tika.parser.audio.MidiParserTest
-------------------------------------------------------------------------------
Tests run: 1, Failures: 0, Errors: 0, Skipped: 0, Time elapsed: 0.013 sec
