-------------------------------------------------------------------------------
Test set: org.apache.tika.parser.pkg.TarParserTest
-------------------------------------------------------------------------------
Tests run: 2, Failures: 0, Errors: 0, Skipped: 0, Time elapsed: 0.064 sec
