-------------------------------------------------------------------------------
Test set: org.apache.tika.parser.chm.TestChmBlockInfo
-------------------------------------------------------------------------------
Tests run: 2, Failures: 0, Errors: 0, Skipped: 0, Time elapsed: 0.022 sec
