-------------------------------------------------------------------------------
Test set: org.apache.tika.parser.pkg.GzipParserTest
-------------------------------------------------------------------------------
Tests run: 3, Failures: 0, Errors: 0, Skipped: 0, Time elapsed: 0.093 sec
