-------------------------------------------------------------------------------
Test set: org.apache.tika.parser.rtf.RTFParserTest
-------------------------------------------------------------------------------
Tests run: 31, Failures: 0, Errors: 0, Skipped: 0, Time elapsed: 1.595 sec
