-------------------------------------------------------------------------------
Test set: org.apache.tika.parser.mbox.MboxParserTest
-------------------------------------------------------------------------------
Tests run: 5, Failures: 0, Errors: 0, Skipped: 0, Time elapsed: 0.053 sec
