-------------------------------------------------------------------------------
Test set: org.apache.tika.parser.microsoft.WordParserTest
-------------------------------------------------------------------------------
Tests run: 15, Failures: 0, Errors: 0, Skipped: 0, Time elapsed: 0.494 sec
