-------------------------------------------------------------------------------
Test set: org.apache.tika.parser.microsoft.TNEFParserTest
-------------------------------------------------------------------------------
Tests run: 3, Failures: 0, Errors: 0, Skipped: 0, Time elapsed: 0.055 sec
