-------------------------------------------------------------------------------
Test set: org.apache.tika.parser.image.ImageParserTest
-------------------------------------------------------------------------------
Tests run: 4, Failures: 0, Errors: 0, Skipped: 0, Time elapsed: 0.039 sec
