-------------------------------------------------------------------------------
Test set: org.apache.tika.parser.txt.TXTParserTest
-------------------------------------------------------------------------------
Tests run: 11, Failures: 0, Errors: 0, Skipped: 0, Time elapsed: 0.035 sec
