/Users/fish/Praxa/TESSAR/var/tmp/tika-1.6/tika-core/src/main/java/org/apache/tika/sax/SafeContentHandler.java
/Users/fish/Praxa/TESSAR/var/tmp/tika-1.6/tika-core/src/main/java/org/apache/tika/utils/RereadableInputStream.java
/Users/fish/Praxa/TESSAR/var/tmp/tika-1.6/tika-core/src/main/java/org/apache/tika/parser/ParserDecorator.java
/Users/fish/Praxa/TESSAR/var/tmp/tika-1.6/tika-core/src/main/java/org/apache/tika/package-info.java
/Users/fish/Praxa/TESSAR/var/tmp/tika-1.6/tika-core/src/main/java/org/apache/tika/parser/ParserPostProcessor.java
/Users/fish/Praxa/TESSAR/var/tmp/tika-1.6/tika-core/src/main/java/org/apache/tika/fork/ForkClient.java
/Users/fish/Praxa/TESSAR/var/tmp/tika-1.6/tika-core/src/main/java/org/apache/tika/fork/MemoryURLConnection.java
/Users/fish/Praxa/TESSAR/var/tmp/tika-1.6/tika-core/src/main/java/org/apache/tika/parser/PasswordProvider.java
/Users/fish/Praxa/TESSAR/var/tmp/tika-1.6/tika-core/src/main/java/org/apache/tika/utils/RegexUtils.java
/Users/fish/Praxa/TESSAR/var/tmp/tika-1.6/tika-core/src/main/java/org/apache/tika/sax/LinkContentHandler.java
/Users/fish/Praxa/TESSAR/var/tmp/tika-1.6/tika-core/src/main/java/org/apache/tika/metadata/MSOffice.java
/Users/fish/Praxa/TESSAR/var/tmp/tika-1.6/tika-core/src/main/java/org/apache/tika/detect/Detector.java
/Users/fish/Praxa/TESSAR/var/tmp/tika-1.6/tika-core/src/main/java/org/apache/tika/utils/package-info.java
/Users/fish/Praxa/TESSAR/var/tmp/tika-1.6/tika-core/src/main/java/org/apache/tika/embedder/ExternalEmbedder.java
/Users/fish/Praxa/TESSAR/var/tmp/tika-1.6/tika-core/src/main/java/org/apache/tika/detect/package-info.java
/Users/fish/Praxa/TESSAR/var/tmp/tika-1.6/tika-core/src/main/java/org/apache/tika/sax/xpath/NamedAttributeMatcher.java
/Users/fish/Praxa/TESSAR/var/tmp/tika-1.6/tika-core/src/main/java/org/apache/tika/fork/ForkObjectInputStream.java
/Users/fish/Praxa/TESSAR/var/tmp/tika-1.6/tika-core/src/main/java/org/apache/tika/sax/SecureContentHandler.java
/Users/fish/Praxa/TESSAR/var/tmp/tika-1.6/tika-core/src/main/java/org/apache/tika/io/IOExceptionWithCause.java
/Users/fish/Praxa/TESSAR/var/tmp/tika-1.6/tika-core/src/main/java/org/apache/tika/sax/xpath/XPathParser.java
/Users/fish/Praxa/TESSAR/var/tmp/tika-1.6/tika-core/src/main/java/org/apache/tika/sax/package-info.java
/Users/fish/Praxa/TESSAR/var/tmp/tika-1.6/tika-core/src/main/java/org/apache/tika/exception/TikaException.java
/Users/fish/Praxa/TESSAR/var/tmp/tika-1.6/tika-core/src/main/java/org/apache/tika/sax/xpath/TextMatcher.java
/Users/fish/Praxa/TESSAR/var/tmp/tika-1.6/tika-core/src/main/java/org/apache/tika/language/ProfilingHandler.java
/Users/fish/Praxa/TESSAR/var/tmp/tika-1.6/tika-core/src/main/java/org/apache/tika/io/TikaInputStream.java
/Users/fish/Praxa/TESSAR/var/tmp/tika-1.6/tika-core/src/main/java/org/apache/tika/metadata/XMPRights.java
/Users/fish/Praxa/TESSAR/var/tmp/tika-1.6/tika-core/src/main/java/org/apache/tika/mime/HexCoDec.java
/Users/fish/Praxa/TESSAR/var/tmp/tika-1.6/tika-core/src/main/java/org/apache/tika/parser/external/package-info.java
/Users/fish/Praxa/TESSAR/var/tmp/tika-1.6/tika-core/src/main/java/org/apache/tika/embedder/Embedder.java
/Users/fish/Praxa/TESSAR/var/tmp/tika-1.6/tika-core/src/main/java/org/apache/tika/language/translate/Translator.java
/Users/fish/Praxa/TESSAR/var/tmp/tika-1.6/tika-core/src/main/java/org/apache/tika/io/NullInputStream.java
/Users/fish/Praxa/TESSAR/var/tmp/tika-1.6/tika-core/src/main/java/org/apache/tika/sax/xpath/NodeMatcher.java
/Users/fish/Praxa/TESSAR/var/tmp/tika-1.6/tika-core/src/main/java/org/apache/tika/extractor/ParsingEmbeddedDocumentExtractor.java
/Users/fish/Praxa/TESSAR/var/tmp/tika-1.6/tika-core/src/main/java/org/apache/tika/mime/Clause.java
/Users/fish/Praxa/TESSAR/var/tmp/tika-1.6/tika-core/src/main/java/org/apache/tika/sax/ExpandedTitleContentHandler.java
/Users/fish/Praxa/TESSAR/var/tmp/tika-1.6/tika-core/src/main/java/org/apache/tika/config/TikaConfig.java
/Users/fish/Praxa/TESSAR/var/tmp/tika-1.6/tika-core/src/main/java/org/apache/tika/detect/TypeDetector.java
/Users/fish/Praxa/TESSAR/var/tmp/tika-1.6/tika-core/src/main/java/org/apache/tika/parser/external/CompositeExternalParser.java
/Users/fish/Praxa/TESSAR/var/tmp/tika-1.6/tika-core/src/main/java/org/apache/tika/extractor/ContainerExtractor.java
/Users/fish/Praxa/TESSAR/var/tmp/tika-1.6/tika-core/src/main/java/org/apache/tika/detect/AutoDetectReader.java
/Users/fish/Praxa/TESSAR/var/tmp/tika-1.6/tika-core/src/main/java/org/apache/tika/metadata/Metadata.java
/Users/fish/Praxa/TESSAR/var/tmp/tika-1.6/tika-core/src/main/java/org/apache/tika/sax/ToXMLContentHandler.java
/Users/fish/Praxa/TESSAR/var/tmp/tika-1.6/tika-core/src/main/java/org/apache/tika/io/IOUtils.java
/Users/fish/Praxa/TESSAR/var/tmp/tika-1.6/tika-core/src/main/java/org/apache/tika/sax/ElementMappingContentHandler.java
/Users/fish/Praxa/TESSAR/var/tmp/tika-1.6/tika-core/src/main/java/org/apache/tika/config/LoadErrorHandler.java
/Users/fish/Praxa/TESSAR/var/tmp/tika-1.6/tika-core/src/main/java/org/apache/tika/sax/EndDocumentShieldingContentHandler.java
/Users/fish/Praxa/TESSAR/var/tmp/tika-1.6/tika-core/src/main/java/org/apache/tika/detect/NameDetector.java
/Users/fish/Praxa/TESSAR/var/tmp/tika-1.6/tika-core/src/main/java/org/apache/tika/metadata/TikaCoreProperties.java
/Users/fish/Praxa/TESSAR/var/tmp/tika-1.6/tika-core/src/main/java/org/apache/tika/extractor/EmbeddedResourceHandler.java
/Users/fish/Praxa/TESSAR/var/tmp/tika-1.6/tika-core/src/main/java/org/apache/tika/metadata/Photoshop.java
/Users/fish/Praxa/TESSAR/var/tmp/tika-1.6/tika-core/src/main/java/org/apache/tika/parser/AutoDetectParser.java
/Users/fish/Praxa/TESSAR/var/tmp/tika-1.6/tika-core/src/main/java/org/apache/tika/metadata/TikaMimeKeys.java
/Users/fish/Praxa/TESSAR/var/tmp/tika-1.6/tika-core/src/main/java/org/apache/tika/config/ServiceLoader.java
/Users/fish/Praxa/TESSAR/var/tmp/tika-1.6/tika-core/src/main/java/org/apache/tika/metadata/package-info.java
/Users/fish/Praxa/TESSAR/var/tmp/tika-1.6/tika-core/src/main/java/org/apache/tika/parser/DefaultParser.java
/Users/fish/Praxa/TESSAR/var/tmp/tika-1.6/tika-core/src/main/java/org/apache/tika/parser/CryptoParser.java
/Users/fish/Praxa/TESSAR/var/tmp/tika-1.6/tika-core/src/main/java/org/apache/tika/io/TemporaryResources.java
/Users/fish/Praxa/TESSAR/var/tmp/tika-1.6/tika-core/src/main/java/org/apache/tika/io/CloseShieldInputStream.java
/Users/fish/Praxa/TESSAR/var/tmp/tika-1.6/tika-core/src/main/java/org/apache/tika/sax/xpath/NamedElementMatcher.java
/Users/fish/Praxa/TESSAR/var/tmp/tika-1.6/tika-core/src/main/java/org/apache/tika/Tika.java
/Users/fish/Praxa/TESSAR/var/tmp/tika-1.6/tika-core/src/main/java/org/apache/tika/detect/TextDetector.java
/Users/fish/Praxa/TESSAR/var/tmp/tika-1.6/tika-core/src/main/java/org/apache/tika/metadata/XMPIdq.java
/Users/fish/Praxa/TESSAR/var/tmp/tika-1.6/tika-core/src/main/java/org/apache/tika/sax/xpath/SubtreeMatcher.java
/Users/fish/Praxa/TESSAR/var/tmp/tika-1.6/tika-core/src/main/java/org/apache/tika/metadata/PropertyTypeException.java
/Users/fish/Praxa/TESSAR/var/tmp/tika-1.6/tika-core/src/main/java/org/apache/tika/io/ProxyInputStream.java
/Users/fish/Praxa/TESSAR/var/tmp/tika-1.6/tika-core/src/main/java/org/apache/tika/parser/package-info.java
/Users/fish/Praxa/TESSAR/var/tmp/tika-1.6/tika-core/src/main/java/org/apache/tika/sax/LinkBuilder.java
/Users/fish/Praxa/TESSAR/var/tmp/tika-1.6/tika-core/src/main/java/org/apache/tika/metadata/XMPDM.java
/Users/fish/Praxa/TESSAR/var/tmp/tika-1.6/tika-core/src/main/java/org/apache/tika/fork/ContentHandlerResource.java
/Users/fish/Praxa/TESSAR/var/tmp/tika-1.6/tika-core/src/main/java/org/apache/tika/mime/package-info.java
/Users/fish/Praxa/TESSAR/var/tmp/tika-1.6/tika-core/src/main/java/org/apache/tika/parser/Parser.java
/Users/fish/Praxa/TESSAR/var/tmp/tika-1.6/tika-core/src/main/java/org/apache/tika/sax/xpath/ChildMatcher.java
/Users/fish/Praxa/TESSAR/var/tmp/tika-1.6/tika-core/src/main/java/org/apache/tika/extractor/EmbeddedDocumentExtractor.java
/Users/fish/Praxa/TESSAR/var/tmp/tika-1.6/tika-core/src/main/java/org/apache/tika/fork/ClassLoaderProxy.java
/Users/fish/Praxa/TESSAR/var/tmp/tika-1.6/tika-core/src/main/java/org/apache/tika/fork/MemoryURLStreamHandler.java
/Users/fish/Praxa/TESSAR/var/tmp/tika-1.6/tika-core/src/main/java/org/apache/tika/metadata/Geographic.java
/Users/fish/Praxa/TESSAR/var/tmp/tika-1.6/tika-core/src/main/java/org/apache/tika/sax/xpath/MatchingContentHandler.java
/Users/fish/Praxa/TESSAR/var/tmp/tika-1.6/tika-core/src/main/java/org/apache/tika/fork/ForkServer.java
/Users/fish/Praxa/TESSAR/var/tmp/tika-1.6/tika-core/src/main/java/org/apache/tika/parser/external/ExternalParsersConfigReader.java
/Users/fish/Praxa/TESSAR/var/tmp/tika-1.6/tika-core/src/main/java/org/apache/tika/sax/BodyContentHandler.java
/Users/fish/Praxa/TESSAR/var/tmp/tika-1.6/tika-core/src/main/java/org/apache/tika/mime/AndClause.java
/Users/fish/Praxa/TESSAR/var/tmp/tika-1.6/tika-core/src/main/java/org/apache/tika/io/TaggedInputStream.java
/Users/fish/Praxa/TESSAR/var/tmp/tika-1.6/tika-core/src/main/java/org/apache/tika/metadata/XMP.java
/Users/fish/Praxa/TESSAR/var/tmp/tika-1.6/tika-core/src/main/java/org/apache/tika/fork/ForkResource.java
/Users/fish/Praxa/TESSAR/var/tmp/tika-1.6/tika-core/src/main/java/org/apache/tika/metadata/CreativeCommons.java
/Users/fish/Praxa/TESSAR/var/tmp/tika-1.6/tika-core/src/main/java/org/apache/tika/parser/ErrorParser.java
/Users/fish/Praxa/TESSAR/var/tmp/tika-1.6/tika-core/src/main/java/org/apache/tika/parser/EmptyParser.java
/Users/fish/Praxa/TESSAR/var/tmp/tika-1.6/tika-core/src/main/java/org/apache/tika/metadata/TIFF.java
/Users/fish/Praxa/TESSAR/var/tmp/tika-1.6/tika-core/src/main/java/org/apache/tika/detect/EmptyDetector.java
/Users/fish/Praxa/TESSAR/var/tmp/tika-1.6/tika-core/src/main/java/org/apache/tika/fork/package-info.java
/Users/fish/Praxa/TESSAR/var/tmp/tika-1.6/tika-core/src/main/java/org/apache/tika/sax/ToTextContentHandler.java
/Users/fish/Praxa/TESSAR/var/tmp/tika-1.6/tika-core/src/main/java/org/apache/tika/exception/package-info.java
/Users/fish/Praxa/TESSAR/var/tmp/tika-1.6/tika-core/src/main/java/org/apache/tika/language/LanguageProfile.java
/Users/fish/Praxa/TESSAR/var/tmp/tika-1.6/tika-core/src/main/java/org/apache/tika/parser/ParseContext.java
/Users/fish/Praxa/TESSAR/var/tmp/tika-1.6/tika-core/src/main/java/org/apache/tika/io/LookaheadInputStream.java
/Users/fish/Praxa/TESSAR/var/tmp/tika-1.6/tika-core/src/main/java/org/apache/tika/io/TaggedIOException.java
/Users/fish/Praxa/TESSAR/var/tmp/tika-1.6/tika-core/src/main/java/org/apache/tika/sax/Link.java
/Users/fish/Praxa/TESSAR/var/tmp/tika-1.6/tika-core/src/main/java/org/apache/tika/mime/OrClause.java
/Users/fish/Praxa/TESSAR/var/tmp/tika-1.6/tika-core/src/main/java/org/apache/tika/metadata/Property.java
/Users/fish/Praxa/TESSAR/var/tmp/tika-1.6/tika-core/src/main/java/org/apache/tika/mime/MimeTypeException.java
/Users/fish/Praxa/TESSAR/var/tmp/tika-1.6/tika-core/src/main/java/org/apache/tika/io/EndianUtils.java
/Users/fish/Praxa/TESSAR/var/tmp/tika-1.6/tika-core/src/main/java/org/apache/tika/language/LanguageProfilerBuilder.java
/Users/fish/Praxa/TESSAR/var/tmp/tika-1.6/tika-core/src/main/java/org/apache/tika/detect/CompositeDetector.java
/Users/fish/Praxa/TESSAR/var/tmp/tika-1.6/tika-core/src/main/java/org/apache/tika/utils/DateUtils.java
/Users/fish/Praxa/TESSAR/var/tmp/tika-1.6/tika-core/src/main/java/org/apache/tika/sax/xpath/ElementMatcher.java
/Users/fish/Praxa/TESSAR/var/tmp/tika-1.6/tika-core/src/main/java/org/apache/tika/detect/DefaultDetector.java
/Users/fish/Praxa/TESSAR/var/tmp/tika-1.6/tika-core/src/main/java/org/apache/tika/io/TailStream.java
/Users/fish/Praxa/TESSAR/var/tmp/tika-1.6/tika-core/src/main/java/org/apache/tika/metadata/Message.java
/Users/fish/Praxa/TESSAR/var/tmp/tika-1.6/tika-core/src/main/java/org/apache/tika/metadata/DublinCore.java
/Users/fish/Praxa/TESSAR/var/tmp/tika-1.6/tika-core/src/main/java/org/apache/tika/metadata/TikaMetadataKeys.java
/Users/fish/Praxa/TESSAR/var/tmp/tika-1.6/tika-core/src/main/java/org/apache/tika/fork/ForkParser.java
/Users/fish/Praxa/TESSAR/var/tmp/tika-1.6/tika-core/src/main/java/org/apache/tika/metadata/Office.java
/Users/fish/Praxa/TESSAR/var/tmp/tika-1.6/tika-core/src/main/java/org/apache/tika/language/translate/DefaultTranslator.java
/Users/fish/Praxa/TESSAR/var/tmp/tika-1.6/tika-core/src/main/java/org/apache/tika/parser/ParsingReader.java
/Users/fish/Praxa/TESSAR/var/tmp/tika-1.6/tika-core/src/main/java/org/apache/tika/sax/ContentHandlerDecorator.java
/Users/fish/Praxa/TESSAR/var/tmp/tika-1.6/tika-core/src/main/java/org/apache/tika/mime/Magic.java
/Users/fish/Praxa/TESSAR/var/tmp/tika-1.6/tika-core/src/main/java/org/apache/tika/sax/OfflineContentHandler.java
/Users/fish/Praxa/TESSAR/var/tmp/tika-1.6/tika-core/src/main/java/org/apache/tika/detect/XmlRootExtractor.java
/Users/fish/Praxa/TESSAR/var/tmp/tika-1.6/tika-core/src/main/java/org/apache/tika/parser/NetworkParser.java
/Users/fish/Praxa/TESSAR/var/tmp/tika-1.6/tika-core/src/main/java/org/apache/tika/detect/TextStatistics.java
/Users/fish/Praxa/TESSAR/var/tmp/tika-1.6/tika-core/src/main/java/org/apache/tika/sax/EmbeddedContentHandler.java
/Users/fish/Praxa/TESSAR/var/tmp/tika-1.6/tika-core/src/main/java/org/apache/tika/sax/ToHTMLContentHandler.java
/Users/fish/Praxa/TESSAR/var/tmp/tika-1.6/tika-core/src/main/java/org/apache/tika/extractor/DocumentSelector.java
/Users/fish/Praxa/TESSAR/var/tmp/tika-1.6/tika-core/src/main/java/org/apache/tika/mime/MediaType.java
/Users/fish/Praxa/TESSAR/var/tmp/tika-1.6/tika-core/src/main/java/org/apache/tika/metadata/RTFMetadata.java
/Users/fish/Praxa/TESSAR/var/tmp/tika-1.6/tika-core/src/main/java/org/apache/tika/io/ClosedInputStream.java
/Users/fish/Praxa/TESSAR/var/tmp/tika-1.6/tika-core/src/main/java/org/apache/tika/mime/MimeTypes.java
/Users/fish/Praxa/TESSAR/var/tmp/tika-1.6/tika-core/src/main/java/org/apache/tika/sax/xpath/AttributeMatcher.java
/Users/fish/Praxa/TESSAR/var/tmp/tika-1.6/tika-core/src/main/java/org/apache/tika/parser/CompositeParser.java
/Users/fish/Praxa/TESSAR/var/tmp/tika-1.6/tika-core/src/main/java/org/apache/tika/sax/xpath/Matcher.java
/Users/fish/Praxa/TESSAR/var/tmp/tika-1.6/tika-core/src/main/java/org/apache/tika/sax/XHTMLContentHandler.java
/Users/fish/Praxa/TESSAR/var/tmp/tika-1.6/tika-core/src/main/java/org/apache/tika/fork/MemoryURLStreamHandlerFactory.java
/Users/fish/Praxa/TESSAR/var/tmp/tika-1.6/tika-core/src/main/java/org/apache/tika/language/ProfilingWriter.java
/Users/fish/Praxa/TESSAR/var/tmp/tika-1.6/tika-core/src/main/java/org/apache/tika/mime/MimeTypesFactory.java
/Users/fish/Praxa/TESSAR/var/tmp/tika-1.6/tika-core/src/main/java/org/apache/tika/sax/xpath/CompositeMatcher.java
/Users/fish/Praxa/TESSAR/var/tmp/tika-1.6/tika-core/src/main/java/org/apache/tika/parser/DelegatingParser.java
/Users/fish/Praxa/TESSAR/var/tmp/tika-1.6/tika-core/src/main/java/org/apache/tika/metadata/OfficeOpenXMLCore.java
/Users/fish/Praxa/TESSAR/var/tmp/tika-1.6/tika-core/src/main/java/org/apache/tika/io/FilenameUtils.java
/Users/fish/Praxa/TESSAR/var/tmp/tika-1.6/tika-core/src/main/java/org/apache/tika/mime/MediaTypeRegistry.java
/Users/fish/Praxa/TESSAR/var/tmp/tika-1.6/tika-core/src/main/java/org/apache/tika/sax/TaggedSAXException.java
/Users/fish/Praxa/TESSAR/var/tmp/tika-1.6/tika-core/src/main/java/org/apache/tika/fork/ClassLoaderResource.java
/Users/fish/Praxa/TESSAR/var/tmp/tika-1.6/tika-core/src/main/java/org/apache/tika/metadata/ClimateForcast.java
/Users/fish/Praxa/TESSAR/var/tmp/tika-1.6/tika-core/src/main/java/org/apache/tika/metadata/HttpHeaders.java
/Users/fish/Praxa/TESSAR/var/tmp/tika-1.6/tika-core/src/main/java/org/apache/tika/parser/AbstractParser.java
/Users/fish/Praxa/TESSAR/var/tmp/tika-1.6/tika-core/src/main/java/org/apache/tika/sax/XMPContentHandler.java
/Users/fish/Praxa/TESSAR/var/tmp/tika-1.6/tika-core/src/main/java/org/apache/tika/fork/InputStreamProxy.java
/Users/fish/Praxa/TESSAR/var/tmp/tika-1.6/tika-core/src/main/java/org/apache/tika/io/NullOutputStream.java
/Users/fish/Praxa/TESSAR/var/tmp/tika-1.6/tika-core/src/main/java/org/apache/tika/io/package-info.java
/Users/fish/Praxa/TESSAR/var/tmp/tika-1.6/tika-core/src/main/java/org/apache/tika/mime/MimeTypesReaderMetKeys.java
/Users/fish/Praxa/TESSAR/var/tmp/tika-1.6/tika-core/src/main/java/org/apache/tika/extractor/ParserContainerExtractor.java
/Users/fish/Praxa/TESSAR/var/tmp/tika-1.6/tika-core/src/main/java/org/apache/tika/extractor/package-info.java
/Users/fish/Praxa/TESSAR/var/tmp/tika-1.6/tika-core/src/main/java/org/apache/tika/fork/ContentHandlerProxy.java
/Users/fish/Praxa/TESSAR/var/tmp/tika-1.6/tika-core/src/main/java/org/apache/tika/metadata/PagedText.java
/Users/fish/Praxa/TESSAR/var/tmp/tika-1.6/tika-core/src/main/java/org/apache/tika/sax/TeeContentHandler.java
/Users/fish/Praxa/TESSAR/var/tmp/tika-1.6/tika-core/src/main/java/org/apache/tika/detect/MagicDetector.java
/Users/fish/Praxa/TESSAR/var/tmp/tika-1.6/tika-core/src/main/java/org/apache/tika/fork/MemoryURLStreamRecord.java
/Users/fish/Praxa/TESSAR/var/tmp/tika-1.6/tika-core/src/main/java/org/apache/tika/language/LanguageIdentifier.java
/Users/fish/Praxa/TESSAR/var/tmp/tika-1.6/tika-core/src/main/java/org/apache/tika/sax/TextContentHandler.java
/Users/fish/Praxa/TESSAR/var/tmp/tika-1.6/tika-core/src/main/java/org/apache/tika/sax/xpath/package-info.java
/Users/fish/Praxa/TESSAR/var/tmp/tika-1.6/tika-core/src/main/java/org/apache/tika/sax/WriteOutContentHandler.java
/Users/fish/Praxa/TESSAR/var/tmp/tika-1.6/tika-core/src/main/java/org/apache/tika/mime/Patterns.java
/Users/fish/Praxa/TESSAR/var/tmp/tika-1.6/tika-core/src/main/java/org/apache/tika/fork/MetadataContentHandler.java
/Users/fish/Praxa/TESSAR/var/tmp/tika-1.6/tika-core/src/main/java/org/apache/tika/mime/MimeType.java
/Users/fish/Praxa/TESSAR/var/tmp/tika-1.6/tika-core/src/main/java/org/apache/tika/config/TikaActivator.java
/Users/fish/Praxa/TESSAR/var/tmp/tika-1.6/tika-core/src/main/java/org/apache/tika/metadata/OfficeOpenXMLExtended.java
/Users/fish/Praxa/TESSAR/var/tmp/tika-1.6/tika-core/src/main/java/org/apache/tika/fork/ForkProxy.java
/Users/fish/Praxa/TESSAR/var/tmp/tika-1.6/tika-core/src/main/java/org/apache/tika/language/package-info.java
/Users/fish/Praxa/TESSAR/var/tmp/tika-1.6/tika-core/src/main/java/org/apache/tika/detect/EncodingDetector.java
/Users/fish/Praxa/TESSAR/var/tmp/tika-1.6/tika-core/src/main/java/org/apache/tika/metadata/IPTC.java
/Users/fish/Praxa/TESSAR/var/tmp/tika-1.6/tika-core/src/main/java/org/apache/tika/parser/external/ExternalParser.java
/Users/fish/Praxa/TESSAR/var/tmp/tika-1.6/tika-core/src/main/java/org/apache/tika/utils/CharsetUtils.java
/Users/fish/Praxa/TESSAR/var/tmp/tika-1.6/tika-core/src/main/java/org/apache/tika/mime/MagicMatch.java
/Users/fish/Praxa/TESSAR/var/tmp/tika-1.6/tika-core/src/main/java/org/apache/tika/sax/TaggedContentHandler.java
/Users/fish/Praxa/TESSAR/var/tmp/tika-1.6/tika-core/src/main/java/org/apache/tika/mime/MimeTypesReader.java
/Users/fish/Praxa/TESSAR/var/tmp/tika-1.6/tika-core/src/main/java/org/apache/tika/parser/external/ExternalParsersConfigReaderMetKeys.java
/Users/fish/Praxa/TESSAR/var/tmp/tika-1.6/tika-core/src/main/java/org/apache/tika/parser/external/ExternalParsersFactory.java
/Users/fish/Praxa/TESSAR/var/tmp/tika-1.6/tika-core/src/main/java/org/apache/tika/metadata/XMPMM.java
/Users/fish/Praxa/TESSAR/var/tmp/tika-1.6/tika-core/src/main/java/org/apache/tika/exception/EncryptedDocumentException.java
/Users/fish/Praxa/TESSAR/var/tmp/tika-1.6/tika-core/src/main/java/org/apache/tika/config/package-info.java
/Users/fish/Praxa/TESSAR/var/tmp/tika-1.6/tika-core/src/main/java/org/apache/tika/io/CountingInputStream.java
/Users/fish/Praxa/TESSAR/var/tmp/tika-1.6/tika-core/src/main/java/org/apache/tika/fork/InputStreamResource.java
