org/apache/tika/parser/AutoDetectParserTest$1.class
org/apache/tika/parser/mp3/MpegStreamTest.class
org/apache/tika/parser/code/SourceCodeParserTest.class
org/apache/tika/TikaTest.class
org/apache/tika/parser/dwg/DWGParserTest.class
org/apache/tika/parser/chm/TestChmExtraction$1.class
org/apache/tika/parser/microsoft/VisioParserTest.class
org/apache/tika/parser/microsoft/ProjectParserTest.class
org/apache/tika/parser/mbox/OutlookPSTParserTest$EmbeddedTrackingExtrator.class
org/apache/tika/parser/html/HtmlParserTest$2.class
org/apache/tika/parser/fork/ForkParserIntegrationTest$1.class
org/apache/tika/parser/netcdf/NetCDFParserTest.class
org/apache/tika/parser/AutoDetectParserTest$TestParams.class
org/apache/tika/parser/pkg/ZipParserTest.class
org/apache/tika/parser/chm/TestChmBlockInfo.class
org/apache/tika/parser/chm/TestChmLzxState.class
org/apache/tika/parser/pdf/PDFParserTest.class
org/apache/tika/TikaTest$ByteCopyingHandler.class
org/apache/tika/parser/font/FontParsersTest.class
org/apache/tika/parser/image/xmp/JempboxExtractorTest.class
org/apache/tika/parser/fork/ForkParserIntegrationTest$WontBeSerializedError.class
org/apache/tika/parser/pdf/PDFParserTest$EventCountingHandler.class
org/apache/tika/parser/mp3/Mp3ParserTest.class
org/apache/tika/parser/AutoDetectParserTest$MyDetector.class
org/apache/tika/parser/chm/TestDirectoryListingEntry.class
org/apache/tika/parser/chm/TestChmLzxcControlData.class
org/apache/tika/parser/xml/EmptyAndDuplicateElementsXMLParserTest$DefaultCustomXMLTestParser.class
org/apache/tika/parser/audio/MidiParserTest.class
org/apache/tika/parser/mail/RFC822ParserTest.class
org/apache/tika/parser/image/ImageMetadataExtractorTest.class
org/apache/tika/parser/microsoft/ooxml/OOXMLParserTest$1.class
org/apache/tika/parser/prt/PRTParserTest.class
org/apache/tika/parser/txt/CharsetDetectorTest.class
org/apache/tika/detect/TestContainerAwareDetector.class
org/apache/tika/parser/hdf/HDFParserTest.class
org/apache/tika/parser/chm/TestChmExtractor.class
org/apache/tika/parser/odf/ODFParserTest.class
org/apache/tika/parser/feed/FeedParserTest.class
org/apache/tika/TikaTest$XMLResult.class
org/apache/tika/parser/microsoft/POIContainerExtractionTest.class
org/apache/tika/parser/image/TiffParserTest.class
org/apache/tika/mime/TestMimeTypes.class
org/apache/tika/parser/fork/ForkParserIntegrationTest$BrokenParser.class
org/apache/tika/parser/txt/TXTParserTest$1.class
org/apache/tika/parser/mp4/MP4ParserTest.class
org/apache/tika/parser/fork/ForkParserIntegrationTest.class
org/apache/tika/parser/mbox/OutlookPSTParserTest.class
org/apache/tika/parser/pkg/AbstractPkgTest.class
org/apache/tika/parser/microsoft/OfficeParserTest.class
org/apache/tika/parser/executable/ExecutableParserTest.class
org/apache/tika/parser/pdf/PDFParserTest$AvoidInlineSelector.class
org/apache/tika/parser/pkg/Seven7ParserTest.class
org/apache/tika/parser/microsoft/WriteProtectedParserTest.class
org/apache/tika/parser/chm/TestPmgiHeader.class
org/apache/tika/parser/chm/TestParameters.class
org/apache/tika/parser/asm/ClassParserTest.class
org/apache/tika/parser/pkg/ZipParserTest$1.class
org/apache/tika/parser/AutoDetectParserTest.class
org/apache/tika/parser/xml/EmptyAndDuplicateElementsXMLParserTest$1.class
org/apache/tika/parser/rtf/RTFParserTest$Result.class
org/apache/tika/parser/mat/MatParserTest.class
org/apache/tika/parser/fork/ForkParserIntegrationTest$AnError.class
org/apache/tika/embedder/ExternalEmbedderTest.class
org/apache/tika/parser/chm/TestChmItsfHeader.class
org/apache/tika/parser/image/MetadataFieldsTest.class
org/apache/tika/parser/xml/EmptyAndDuplicateElementsXMLParserTest$AllowEmptiesAndDuplicatesCustomXMLTestParser.class
org/apache/tika/parser/crypto/Pkcs7ParserTest.class
org/apache/tika/parser/html/HtmlParserTest$1.class
org/apache/tika/parser/pkg/AbstractPkgTest$EmbeddedTrackingParser.class
org/apache/tika/parser/pkg/TarParserTest.class
org/apache/tika/parser/audio/AudioParserTest.class
org/apache/tika/parser/microsoft/ooxml/OOXMLParserTest.class
org/apache/tika/parser/pdf/PDFParserTest$1.class
org/apache/tika/detect/TestContainerAwareDetector$1.class
org/apache/tika/parser/chm/TestChmExtraction.class
org/apache/tika/parser/chm/TestChmLzxcResetTable.class
org/apache/tika/parser/html/HtmlParserTest.class
org/apache/tika/parser/iwork/IWorkParserTest.class
org/apache/tika/parser/AutoDetectParserTest$MyParser.class
org/apache/tika/parser/solidworks/SolidworksParserTest.class
org/apache/tika/parser/epub/EpubParserTest.class
org/apache/tika/parser/pkg/ArParserTest.class
org/apache/tika/parser/microsoft/ooxml/OOXMLContainerExtractionTest.class
org/apache/tika/parser/image/ImageParserTest.class
org/apache/tika/parser/html/HtmlParserTest$3.class
org/apache/tika/parser/image/PSDParserTest.class
org/apache/tika/parser/pkg/ZipParserTest$GatherRelIDsDocumentExtractor.class
org/apache/tika/parser/microsoft/WordParserTest.class
org/apache/tika/parser/microsoft/PowerPointParserTest.class
org/apache/tika/parser/envi/EnviHeaderParserTest.class
org/apache/tika/parser/microsoft/ExcelParserTest.class
org/apache/tika/parser/chm/TestPmglHeader.class
org/apache/tika/TestParsers.class
org/apache/tika/parser/microsoft/AbstractPOIContainerExtractionTest.class
org/apache/tika/parser/xml/FictionBookParserTest.class
org/apache/tika/parser/iwork/AutoPageNumberUtilsTest.class
org/apache/tika/TikaTest$TrackingHandler.class
org/apache/tika/TikaTest$RecursiveMetadataParser.class
org/apache/tika/mime/MimeTypesTest.class
org/apache/tika/parser/microsoft/PublisherParserTest.class
org/apache/tika/parser/microsoft/OutlookParserTest.class
org/apache/tika/parser/pkg/Bzip2ParserTest.class
org/apache/tika/parser/rtf/RTFParserTest.class
org/apache/tika/parser/microsoft/TNEFParserTest.class
org/apache/tika/parser/ibooks/iBooksParserTest.class
org/apache/tika/parser/video/FLVParserTest.class
org/apache/tika/mime/MimeTypeTest.class
org/apache/tika/parser/xml/EmptyAndDuplicateElementsXMLParserTest.class
org/apache/tika/parser/txt/TXTParserTest.class
org/apache/tika/parser/ParsingReaderTest.class
org/apache/tika/parser/mbox/MboxParserTest.class
org/apache/tika/parser/xml/DcXMLParserTest.class
org/apache/tika/parser/pkg/GzipParserTest.class
org/apache/tika/parser/jpeg/JpegParserTest.class
org/apache/tika/parser/chm/TestChmItspHeader.class
