/Users/fish/Praxa/TESSAR/var/tmp/tika-1.6/tika-server/src/test/java/org/apache/tika/server/TikaMimeTypesTest.java
/Users/fish/Praxa/TESSAR/var/tmp/tika-1.6/tika-server/src/test/java/org/apache/tika/server/UnpackerResourceTest.java
/Users/fish/Praxa/TESSAR/var/tmp/tika-1.6/tika-server/src/test/java/org/apache/tika/server/TikaVersionTest.java
/Users/fish/Praxa/TESSAR/var/tmp/tika-1.6/tika-server/src/test/java/org/apache/tika/server/TikaWelcomeTest.java
/Users/fish/Praxa/TESSAR/var/tmp/tika-1.6/tika-server/src/test/java/org/apache/tika/server/CXFTestBase.java
/Users/fish/Praxa/TESSAR/var/tmp/tika-1.6/tika-server/src/test/java/org/apache/tika/server/TikaParsersTest.java
/Users/fish/Praxa/TESSAR/var/tmp/tika-1.6/tika-server/src/test/java/org/apache/tika/server/TikaResourceTest.java
/Users/fish/Praxa/TESSAR/var/tmp/tika-1.6/tika-server/src/test/java/org/apache/tika/server/TikaDetectorsTest.java
/Users/fish/Praxa/TESSAR/var/tmp/tika-1.6/tika-server/src/test/java/org/apache/tika/server/DetectorResourceTest.java
/Users/fish/Praxa/TESSAR/var/tmp/tika-1.6/tika-server/src/test/java/org/apache/tika/server/MetadataResourceTest.java
/Users/fish/Praxa/TESSAR/var/tmp/tika-1.6/tika-server/src/test/java/org/apache/tika/server/MetadataEPTest.java
