-------------------------------------------------------------------------------
Test set: org.apache.tika.language.LanguageProfilerBuilderTest
-------------------------------------------------------------------------------
Tests run: 2, Failures: 0, Errors: 0, Skipped: 0, Time elapsed: 0.166 sec
