-------------------------------------------------------------------------------
Test set: org.apache.tika.mime.MimeDetectionTest
-------------------------------------------------------------------------------
Tests run: 7, Failures: 0, Errors: 0, Skipped: 0, Time elapsed: 0.467 sec
