-------------------------------------------------------------------------------
Test set: org.apache.tika.io.TikaInputStreamTest
-------------------------------------------------------------------------------
Tests run: 3, Failures: 0, Errors: 0, Skipped: 0, Time elapsed: 0.001 sec
