-------------------------------------------------------------------------------
Test set: org.apache.tika.io.FilenameUtilsTest
-------------------------------------------------------------------------------
Tests run: 6, Failures: 0, Errors: 0, Skipped: 0, Time elapsed: 0.008 sec
