-------------------------------------------------------------------------------
Test set: org.apache.tika.metadata.TestMetadata
-------------------------------------------------------------------------------
Tests run: 12, Failures: 0, Errors: 0, Skipped: 0, Time elapsed: 0.016 sec
