Sep 06, 2014 1:47:08 AM org.apache.cxf.endpoint.ServerImpl initDestination
INFO: Setting the server's publish address to be http://localhost:9998/
Sep 06, 2014 1:47:08 AM sun.net.www.protocol.http.HttpURLConnection plainConnect0
FINEST: ProxySelector Request for http://localhost:9998/unpack
Sep 06, 2014 1:47:08 AM sun.net.www.http.HttpClient logFinest
FINEST: KeepAlive stream retrieved from the cache, sun.net.www.http.HttpClient(http://localhost:9998/)
Sep 06, 2014 1:47:08 AM sun.net.www.protocol.http.HttpURLConnection plainConnect0
FINEST: Proxy used: DIRECT
Sep 06, 2014 1:47:08 AM sun.net.www.protocol.http.HttpURLConnection writeRequests
FINE: sun.net.www.MessageHeader@95735849 pairs: {PUT /unpack HTTP/1.1: null}{Content-Type: application/xml}{Accept: application/zip}{User-Agent: Apache CXF 2.7.8}{Cache-Control: no-cache}{Pragma: no-cache}{Host: localhost:9998}{Connection: keep-alive}{Transfer-Encoding: chunked}
Sep 06, 2014 1:47:08 AM org.apache.tika.server.TikaResource logRequest
INFO: unpack (autodetecting type)
Sep 06, 2014 1:47:09 AM sun.net.www.protocol.http.HttpURLConnection getInputStream0
FINE: sun.net.www.MessageHeader@3370f425 pairs: {null: HTTP/1.1 200 OK}{Content-Type: application/zip}{Date: Sat, 06 Sep 2014 08:47:09 GMT}{Transfer-Encoding: chunked}{Server: Jetty(8.1.14.v20131031)}
Sep 06, 2014 1:47:09 AM org.apache.cxf.endpoint.ServerImpl initDestination
INFO: Setting the server's publish address to be http://localhost:9998/
Sep 06, 2014 1:47:09 AM sun.net.www.protocol.http.HttpURLConnection plainConnect0
FINEST: ProxySelector Request for http://localhost:9998/unpack
Sep 06, 2014 1:47:09 AM sun.net.www.http.HttpClient logFinest
FINEST: KeepAlive stream retrieved from the cache, sun.net.www.http.HttpClient(http://localhost:9998/unpack)
Sep 06, 2014 1:47:09 AM sun.net.www.protocol.http.HttpURLConnection plainConnect0
FINEST: Proxy used: DIRECT
Sep 06, 2014 1:47:09 AM sun.net.www.protocol.http.HttpURLConnection writeRequests
FINE: sun.net.www.MessageHeader@7ceb31859 pairs: {PUT /unpack HTTP/1.1: null}{Content-Type: xxx/xxx}{Accept: */*}{User-Agent: Apache CXF 2.7.8}{Cache-Control: no-cache}{Pragma: no-cache}{Host: localhost:9998}{Connection: keep-alive}{Transfer-Encoding: chunked}
Sep 06, 2014 1:47:09 AM org.apache.tika.server.TikaResource logRequest
INFO: unpack (xxx/xxx)
Sep 06, 2014 1:47:09 AM org.apache.tika.server.UnpackerResource process
WARNING: unpack: Unpacker failed
org.apache.tika.exception.TikaException: Unexpected RuntimeException from org.apache.tika.server.TikaResource$1@400ac655
	at org.apache.tika.parser.CompositeParser.parse(CompositeParser.java:246)
	at org.apache.tika.parser.AutoDetectParser.parse(AutoDetectParser.java:121)
	at org.apache.tika.server.UnpackerResource.process(UnpackerResource.java:127)
	at org.apache.tika.server.UnpackerResource.unpack(UnpackerResource.java:83)
	at sun.reflect.NativeMethodAccessorImpl.invoke0(Native Method)
	at sun.reflect.NativeMethodAccessorImpl.invoke(NativeMethodAccessorImpl.java:62)
	at sun.reflect.DelegatingMethodAccessorImpl.invoke(DelegatingMethodAccessorImpl.java:43)
	at java.lang.reflect.Method.invoke(Method.java:483)
	at org.apache.cxf.service.invoker.AbstractInvoker.performInvocation(AbstractInvoker.java:180)
	at org.apache.cxf.service.invoker.AbstractInvoker.invoke(AbstractInvoker.java:96)
	at org.apache.cxf.jaxrs.JAXRSInvoker.invoke(JAXRSInvoker.java:205)
	at org.apache.cxf.jaxrs.JAXRSInvoker.invoke(JAXRSInvoker.java:102)
	at org.apache.cxf.interceptor.ServiceInvokerInterceptor$1.run(ServiceInvokerInterceptor.java:58)
	at org.apache.cxf.interceptor.ServiceInvokerInterceptor.handleMessage(ServiceInvokerInterceptor.java:94)
	at org.apache.cxf.phase.PhaseInterceptorChain.doIntercept(PhaseInterceptorChain.java:272)
	at org.apache.cxf.transport.ChainInitiationObserver.onMessage(ChainInitiationObserver.java:121)
	at org.apache.cxf.transport.http_jetty.JettyHTTPDestination.serviceRequest(JettyHTTPDestination.java:355)
	at org.apache.cxf.transport.http_jetty.JettyHTTPDestination.doService(JettyHTTPDestination.java:319)
	at org.apache.cxf.transport.http_jetty.JettyHTTPHandler.handle(JettyHTTPHandler.java:72)
	at org.eclipse.jetty.server.handler.ContextHandler.doHandle(ContextHandler.java:1088)
	at org.eclipse.jetty.server.handler.ContextHandler.doScope(ContextHandler.java:1024)
	at org.eclipse.jetty.server.handler.ScopedHandler.handle(ScopedHandler.java:135)
	at org.eclipse.jetty.server.handler.ContextHandlerCollection.handle(ContextHandlerCollection.java:255)
	at org.eclipse.jetty.server.handler.HandlerWrapper.handle(HandlerWrapper.java:116)
	at org.eclipse.jetty.server.Server.handle(Server.java:370)
	at org.eclipse.jetty.server.AbstractHttpConnection.handleRequest(AbstractHttpConnection.java:494)
	at org.eclipse.jetty.server.AbstractHttpConnection.content(AbstractHttpConnection.java:982)
	at org.eclipse.jetty.server.AbstractHttpConnection$RequestHandler.content(AbstractHttpConnection.java:1043)
	at org.eclipse.jetty.http.HttpParser.parseNext(HttpParser.java:957)
	at org.eclipse.jetty.http.HttpParser.parseAvailable(HttpParser.java:235)
	at org.eclipse.jetty.server.AsyncHttpConnection.handle(AsyncHttpConnection.java:82)
	at org.eclipse.jetty.io.nio.SelectChannelEndPoint.handle(SelectChannelEndPoint.java:667)
	at org.eclipse.jetty.io.nio.SelectChannelEndPoint$1.run(SelectChannelEndPoint.java:52)
	at org.eclipse.jetty.util.thread.QueuedThreadPool.runJob(QueuedThreadPool.java:608)
	at org.eclipse.jetty.util.thread.QueuedThreadPool$3.run(QueuedThreadPool.java:543)
	at java.lang.Thread.run(Thread.java:745)
Caused by: javax.ws.rs.WebApplicationException
	at org.apache.tika.server.TikaResource$1.parse(TikaResource.java:105)
	at org.apache.tika.parser.CompositeParser.parse(CompositeParser.java:244)
	... 35 more

Sep 06, 2014 1:47:10 AM sun.net.www.protocol.http.HttpURLConnection getInputStream0
FINE: sun.net.www.MessageHeader@436c81a34 pairs: {null: HTTP/1.1 415 Unsupported Media Type}{Content-Length: 0}{Date: Sat, 06 Sep 2014 08:47:10 GMT}{Server: Jetty(8.1.14.v20131031)}
Sep 06, 2014 1:47:10 AM org.apache.cxf.endpoint.ServerImpl initDestination
INFO: Setting the server's publish address to be http://localhost:9998/
Sep 06, 2014 1:47:10 AM sun.net.www.protocol.http.HttpURLConnection plainConnect0
FINEST: ProxySelector Request for http://localhost:9998/unpack/all
Sep 06, 2014 1:47:10 AM sun.net.www.http.HttpClient logFinest
FINEST: KeepAlive stream retrieved from the cache, sun.net.www.http.HttpClient(http://localhost:9998/unpack)
Sep 06, 2014 1:47:10 AM sun.net.www.protocol.http.HttpURLConnection plainConnect0
FINEST: Proxy used: DIRECT
Sep 06, 2014 1:47:10 AM sun.net.www.protocol.http.HttpURLConnection writeRequests
FINE: sun.net.www.MessageHeader@41ab0139 pairs: {PUT /unpack/all HTTP/1.1: null}{Content-Type: application/xml}{Accept: application/zip}{User-Agent: Apache CXF 2.7.8}{Cache-Control: no-cache}{Pragma: no-cache}{Host: localhost:9998}{Connection: keep-alive}{Transfer-Encoding: chunked}
Sep 06, 2014 1:47:10 AM org.apache.tika.server.TikaResource logRequest
INFO: unpack/all (autodetecting type)
Sep 06, 2014 1:47:10 AM sun.net.www.http.HttpClient logFinest
FINEST: KeepAlive stream used: http://localhost:9998/unpack/all
Sep 06, 2014 1:47:10 AM sun.net.www.protocol.http.HttpURLConnection getInputStream0
FINE: sun.net.www.MessageHeader@14bee9155 pairs: {null: HTTP/1.1 200 OK}{Content-Type: application/zip}{Date: Sat, 06 Sep 2014 08:47:10 GMT}{Content-Length: 951}{Server: Jetty(8.1.14.v20131031)}
Sep 06, 2014 1:47:10 AM org.apache.cxf.endpoint.ServerImpl initDestination
INFO: Setting the server's publish address to be http://localhost:9998/
Sep 06, 2014 1:47:10 AM sun.net.www.protocol.http.HttpURLConnection plainConnect0
FINEST: ProxySelector Request for http://localhost:9998/unpack
Sep 06, 2014 1:47:10 AM sun.net.www.http.HttpClient logFinest
FINEST: KeepAlive stream retrieved from the cache, sun.net.www.http.HttpClient(http://localhost:9998/unpack/all)
Sep 06, 2014 1:47:10 AM sun.net.www.protocol.http.HttpURLConnection plainConnect0
FINEST: Proxy used: DIRECT
Sep 06, 2014 1:47:10 AM sun.net.www.protocol.http.HttpURLConnection writeRequests
FINE: sun.net.www.MessageHeader@4ebff6109 pairs: {PUT /unpack HTTP/1.1: null}{Content-Type: application/xml}{Accept: application/zip}{User-Agent: Apache CXF 2.7.8}{Cache-Control: no-cache}{Pragma: no-cache}{Host: localhost:9998}{Connection: keep-alive}{Transfer-Encoding: chunked}
Sep 06, 2014 1:47:10 AM org.apache.tika.server.TikaResource logRequest
INFO: unpack (autodetecting type)
Sep 06, 2014 1:47:10 AM sun.net.www.protocol.http.HttpURLConnection getInputStream0
FINE: sun.net.www.MessageHeader@60410cd5 pairs: {null: HTTP/1.1 200 OK}{Content-Type: application/zip}{Date: Sat, 06 Sep 2014 08:47:10 GMT}{Transfer-Encoding: chunked}{Server: Jetty(8.1.14.v20131031)}
Sep 06, 2014 1:47:10 AM org.apache.cxf.endpoint.ServerImpl initDestination
INFO: Setting the server's publish address to be http://localhost:9998/
Sep 06, 2014 1:47:10 AM sun.net.www.protocol.http.HttpURLConnection plainConnect0
FINEST: ProxySelector Request for http://localhost:9998/unpack
Sep 06, 2014 1:47:10 AM sun.net.www.http.HttpClient logFinest
FINEST: KeepAlive stream retrieved from the cache, sun.net.www.http.HttpClient(http://localhost:9998/unpack)
Sep 06, 2014 1:47:10 AM sun.net.www.protocol.http.HttpURLConnection plainConnect0
FINEST: Proxy used: DIRECT
Sep 06, 2014 1:47:10 AM sun.net.www.protocol.http.HttpURLConnection writeRequests
FINE: sun.net.www.MessageHeader@5a3bc7ed9 pairs: {PUT /unpack HTTP/1.1: null}{Content-Type: application/xml}{Accept: application/zip}{User-Agent: Apache CXF 2.7.8}{Cache-Control: no-cache}{Pragma: no-cache}{Host: localhost:9998}{Connection: keep-alive}{Transfer-Encoding: chunked}
Sep 06, 2014 1:47:10 AM org.apache.tika.server.TikaResource logRequest
INFO: unpack (autodetecting type)
Sep 06, 2014 1:47:10 AM sun.net.www.protocol.http.HttpURLConnection getInputStream0
FINE: sun.net.www.MessageHeader@181e731e5 pairs: {null: HTTP/1.1 200 OK}{Content-Type: application/zip}{Date: Sat, 06 Sep 2014 08:47:10 GMT}{Transfer-Encoding: chunked}{Server: Jetty(8.1.14.v20131031)}
Sep 06, 2014 1:47:10 AM org.apache.cxf.endpoint.ServerImpl initDestination
INFO: Setting the server's publish address to be http://localhost:9998/
Sep 06, 2014 1:47:10 AM sun.net.www.protocol.http.HttpURLConnection plainConnect0
FINEST: ProxySelector Request for http://localhost:9998/unpack
Sep 06, 2014 1:47:10 AM sun.net.www.http.HttpClient logFinest
FINEST: KeepAlive stream retrieved from the cache, sun.net.www.http.HttpClient(http://localhost:9998/unpack)
Sep 06, 2014 1:47:10 AM sun.net.www.protocol.http.HttpURLConnection plainConnect0
FINEST: Proxy used: DIRECT
Sep 06, 2014 1:47:10 AM sun.net.www.protocol.http.HttpURLConnection writeRequests
FINE: sun.net.www.MessageHeader@7e5c856f9 pairs: {PUT /unpack HTTP/1.1: null}{Content-Type: application/msword}{Accept: application/zip}{User-Agent: Apache CXF 2.7.8}{Cache-Control: no-cache}{Pragma: no-cache}{Host: localhost:9998}{Connection: keep-alive}{Transfer-Encoding: chunked}
Sep 06, 2014 1:47:10 AM org.apache.tika.server.TikaResource logRequest
INFO: unpack (application/msword)
Sep 06, 2014 1:47:10 AM sun.net.www.protocol.http.HttpURLConnection getInputStream0
FINE: sun.net.www.MessageHeader@413f69cc5 pairs: {null: HTTP/1.1 200 OK}{Content-Type: application/zip}{Date: Sat, 06 Sep 2014 08:47:10 GMT}{Transfer-Encoding: chunked}{Server: Jetty(8.1.14.v20131031)}
Sep 06, 2014 1:47:10 AM org.apache.cxf.endpoint.ServerImpl initDestination
INFO: Setting the server's publish address to be http://localhost:9998/
Sep 06, 2014 1:47:10 AM sun.net.www.protocol.http.HttpURLConnection plainConnect0
FINEST: ProxySelector Request for http://localhost:9998/unpack
Sep 06, 2014 1:47:10 AM sun.net.www.http.HttpClient logFinest
FINEST: KeepAlive stream retrieved from the cache, sun.net.www.http.HttpClient(http://localhost:9998/unpack)
Sep 06, 2014 1:47:10 AM sun.net.www.protocol.http.HttpURLConnection plainConnect0
FINEST: Proxy used: DIRECT
Sep 06, 2014 1:47:10 AM sun.net.www.protocol.http.HttpURLConnection writeRequests
FINE: sun.net.www.MessageHeader@479460a69 pairs: {PUT /unpack HTTP/1.1: null}{Content-Type: application/msword}{Accept: application/zip}{User-Agent: Apache CXF 2.7.8}{Cache-Control: no-cache}{Pragma: no-cache}{Host: localhost:9998}{Connection: keep-alive}{Transfer-Encoding: chunked}
Sep 06, 2014 1:47:10 AM org.apache.tika.server.TikaResource logRequest
INFO: unpack (application/msword)
Sep 06, 2014 1:47:10 AM sun.net.www.protocol.http.HttpURLConnection getInputStream0
FINE: sun.net.www.MessageHeader@7164ca4c5 pairs: {null: HTTP/1.1 200 OK}{Content-Type: application/zip}{Date: Sat, 06 Sep 2014 08:47:10 GMT}{Transfer-Encoding: chunked}{Server: Jetty(8.1.14.v20131031)}
Sep 06, 2014 1:47:10 AM org.apache.cxf.endpoint.ServerImpl initDestination
INFO: Setting the server's publish address to be http://localhost:9998/
Sep 06, 2014 1:47:10 AM sun.net.www.protocol.http.HttpURLConnection plainConnect0
FINEST: ProxySelector Request for http://localhost:9998/unpack/all
Sep 06, 2014 1:47:10 AM sun.net.www.http.HttpClient logFinest
FINEST: KeepAlive stream retrieved from the cache, sun.net.www.http.HttpClient(http://localhost:9998/unpack)
Sep 06, 2014 1:47:10 AM sun.net.www.protocol.http.HttpURLConnection plainConnect0
FINEST: Proxy used: DIRECT
Sep 06, 2014 1:47:10 AM sun.net.www.protocol.http.HttpURLConnection writeRequests
FINE: sun.net.www.MessageHeader@67d18ed79 pairs: {PUT /unpack/all HTTP/1.1: null}{Content-Type: application/msword}{Accept: application/zip}{User-Agent: Apache CXF 2.7.8}{Cache-Control: no-cache}{Pragma: no-cache}{Host: localhost:9998}{Connection: keep-alive}{Transfer-Encoding: chunked}
Sep 06, 2014 1:47:10 AM org.apache.tika.server.TikaResource logRequest
INFO: unpack/all (application/msword)
Sep 06, 2014 1:47:10 AM sun.net.www.protocol.http.HttpURLConnection getInputStream0
FINE: sun.net.www.MessageHeader@2c78d3205 pairs: {null: HTTP/1.1 200 OK}{Content-Type: application/zip}{Date: Sat, 06 Sep 2014 08:47:10 GMT}{Transfer-Encoding: chunked}{Server: Jetty(8.1.14.v20131031)}
Sep 06, 2014 1:47:10 AM org.apache.cxf.endpoint.ServerImpl initDestination
INFO: Setting the server's publish address to be http://localhost:9998/
Sep 06, 2014 1:47:10 AM sun.net.www.protocol.http.HttpURLConnection plainConnect0
FINEST: ProxySelector Request for http://localhost:9998/unpack
Sep 06, 2014 1:47:10 AM sun.net.www.http.HttpClient logFinest
FINEST: KeepAlive stream retrieved from the cache, sun.net.www.http.HttpClient(http://localhost:9998/unpack/all)
Sep 06, 2014 1:47:10 AM sun.net.www.protocol.http.HttpURLConnection plainConnect0
FINEST: Proxy used: DIRECT
Sep 06, 2014 1:47:10 AM sun.net.www.protocol.http.HttpURLConnection writeRequests
FINE: sun.net.www.MessageHeader@5f354bcf9 pairs: {PUT /unpack HTTP/1.1: null}{Content-Type: application/msword}{Accept: application/zip}{User-Agent: Apache CXF 2.7.8}{Cache-Control: no-cache}{Pragma: no-cache}{Host: localhost:9998}{Connection: keep-alive}{Transfer-Encoding: chunked}
Sep 06, 2014 1:47:10 AM org.apache.tika.server.TikaResource logRequest
INFO: unpack (application/msword)
Sep 06, 2014 1:47:10 AM sun.net.www.protocol.http.HttpURLConnection getInputStream0
FINE: sun.net.www.MessageHeader@3daf77225 pairs: {null: HTTP/1.1 200 OK}{Content-Type: application/zip}{Date: Sat, 06 Sep 2014 08:47:10 GMT}{Transfer-Encoding: chunked}{Server: Jetty(8.1.14.v20131031)}
Sep 06, 2014 1:47:10 AM org.apache.cxf.endpoint.ServerImpl initDestination
INFO: Setting the server's publish address to be http://localhost:9998/
Sep 06, 2014 1:47:10 AM sun.net.www.protocol.http.HttpURLConnection plainConnect0
FINEST: ProxySelector Request for http://localhost:9998/unpack
Sep 06, 2014 1:47:10 AM sun.net.www.http.HttpClient logFinest
FINEST: KeepAlive stream retrieved from the cache, sun.net.www.http.HttpClient(http://localhost:9998/unpack)
Sep 06, 2014 1:47:10 AM sun.net.www.protocol.http.HttpURLConnection plainConnect0
FINEST: Proxy used: DIRECT
Sep 06, 2014 1:47:10 AM sun.net.www.protocol.http.HttpURLConnection writeRequests
FINE: sun.net.www.MessageHeader@4ae9cfc19 pairs: {PUT /unpack HTTP/1.1: null}{Content-Type: application/msword}{Accept: application/x-tar}{User-Agent: Apache CXF 2.7.8}{Cache-Control: no-cache}{Pragma: no-cache}{Host: localhost:9998}{Connection: keep-alive}{Transfer-Encoding: chunked}
Sep 06, 2014 1:47:10 AM org.apache.tika.server.TikaResource logRequest
INFO: unpack (application/msword)
Sep 06, 2014 1:47:10 AM sun.net.www.protocol.http.HttpURLConnection getInputStream0
FINE: sun.net.www.MessageHeader@512baff65 pairs: {null: HTTP/1.1 200 OK}{Content-Type: application/x-tar}{Date: Sat, 06 Sep 2014 08:47:10 GMT}{Transfer-Encoding: chunked}{Server: Jetty(8.1.14.v20131031)}
