org/apache/tika/detect/TypeDetectorTest.class
org/apache/tika/mime/MimeDetectionTest.class
org/apache/tika/TestRereadableInputStream$TestInputStream.class
org/apache/tika/sax/BodyContentHandlerTest.class
org/apache/tika/language/LanguageProfilerBuilderTest.class
org/apache/tika/sax/SafeContentHandlerTest.class
org/apache/tika/utils/CharsetUtilsTest.class
org/apache/tika/detect/NameDetectorTest.class
org/apache/tika/fork/ForkParserTest$2.class
org/apache/tika/TikaDetectionTest.class
org/apache/tika/sax/SerializerTest.class
org/apache/tika/TestRereadableInputStream.class
org/apache/tika/detect/MagicDetectorTest.class
org/apache/tika/language/ProfilingWriterTest.class
org/apache/tika/io/TikaInputStreamTest.class
org/apache/tika/mime/MediaTypeTest.class
org/apache/tika/parser/CompositeParserTest$1.class
org/apache/tika/io/TailStreamTest.class
org/apache/tika/fork/ForkTestParser.class
org/apache/tika/TypeDetectionBenchmark.class
org/apache/tika/detect/MagicDetectorTest$RestrictiveInputStream.class
org/apache/tika/parser/DummyParser.class
org/apache/tika/ResourceLoggingClassLoader.class
org/apache/tika/fork/ForkParserTest.class
org/apache/tika/fork/ForkParserTest$3.class
org/apache/tika/parser/CompositeParserTest$2.class
org/apache/tika/io/TaggedInputStreamTest.class
org/apache/tika/io/LookaheadInputStreamTest.class
org/apache/tika/parser/CompositeParserTest.class
org/apache/tika/utils/RegexUtilsTest.class
org/apache/tika/sax/OfflineContentHandlerTest.class
org/apache/tika/mime/CustomReaderTest$CustomMimeTypesReader.class
org/apache/tika/language/LanguageIdentifierTest.class
org/apache/tika/config/TikaConfigTest.class
org/apache/tika/mime/CustomReaderTest.class
org/apache/tika/parser/CompositeParserTest$3.class
org/apache/tika/fork/ForkParserTest$4.class
org/apache/tika/mime/MimeTypesReaderTest.class
org/apache/tika/TikaIT.class
org/apache/tika/language/LanguageProfileTest.class
org/apache/tika/io/FilenameUtilsTest.class
org/apache/tika/sax/SecureContentHandlerTest.class
org/apache/tika/sax/xpath/XPathParserTest.class
org/apache/tika/sax/XHTMLContentHandlerTest.class
org/apache/tika/mime/PatternsTest.class
org/apache/tika/sax/LinkContentHandlerTest.class
org/apache/tika/detect/TextDetectorTest.class
org/apache/tika/fork/ForkParserTest$1.class
org/apache/tika/metadata/TestMetadata.class
