/Users/fish/Praxa/TESSAR/var/tmp/tika-1.6/tika-core/src/test/java/org/apache/tika/fork/ForkParserTest.java
/Users/fish/Praxa/TESSAR/var/tmp/tika-1.6/tika-core/src/test/java/org/apache/tika/detect/TextDetectorTest.java
/Users/fish/Praxa/TESSAR/var/tmp/tika-1.6/tika-core/src/test/java/org/apache/tika/ResourceLoggingClassLoader.java
/Users/fish/Praxa/TESSAR/var/tmp/tika-1.6/tika-core/src/test/java/org/apache/tika/TestRereadableInputStream.java
/Users/fish/Praxa/TESSAR/var/tmp/tika-1.6/tika-core/src/test/java/org/apache/tika/utils/RegexUtilsTest.java
/Users/fish/Praxa/TESSAR/var/tmp/tika-1.6/tika-core/src/test/java/org/apache/tika/detect/TypeDetectorTest.java
/Users/fish/Praxa/TESSAR/var/tmp/tika-1.6/tika-core/src/test/java/org/apache/tika/mime/MimeDetectionTest.java
/Users/fish/Praxa/TESSAR/var/tmp/tika-1.6/tika-core/src/test/java/org/apache/tika/sax/OfflineContentHandlerTest.java
/Users/fish/Praxa/TESSAR/var/tmp/tika-1.6/tika-core/src/test/java/org/apache/tika/sax/XHTMLContentHandlerTest.java
/Users/fish/Praxa/TESSAR/var/tmp/tika-1.6/tika-core/src/test/java/org/apache/tika/config/TikaConfigTest.java
/Users/fish/Praxa/TESSAR/var/tmp/tika-1.6/tika-core/src/test/java/org/apache/tika/utils/CharsetUtilsTest.java
/Users/fish/Praxa/TESSAR/var/tmp/tika-1.6/tika-core/src/test/java/org/apache/tika/sax/SecureContentHandlerTest.java
/Users/fish/Praxa/TESSAR/var/tmp/tika-1.6/tika-core/src/test/java/org/apache/tika/detect/MagicDetectorTest.java
/Users/fish/Praxa/TESSAR/var/tmp/tika-1.6/tika-core/src/test/java/org/apache/tika/sax/SafeContentHandlerTest.java
/Users/fish/Praxa/TESSAR/var/tmp/tika-1.6/tika-core/src/test/java/org/apache/tika/mime/PatternsTest.java
/Users/fish/Praxa/TESSAR/var/tmp/tika-1.6/tika-core/src/test/java/org/apache/tika/parser/DummyParser.java
/Users/fish/Praxa/TESSAR/var/tmp/tika-1.6/tika-core/src/test/java/org/apache/tika/sax/BodyContentHandlerTest.java
/Users/fish/Praxa/TESSAR/var/tmp/tika-1.6/tika-core/src/test/java/org/apache/tika/io/TaggedInputStreamTest.java
/Users/fish/Praxa/TESSAR/var/tmp/tika-1.6/tika-core/src/test/java/org/apache/tika/sax/LinkContentHandlerTest.java
/Users/fish/Praxa/TESSAR/var/tmp/tika-1.6/tika-core/src/test/java/org/apache/tika/io/LookaheadInputStreamTest.java
/Users/fish/Praxa/TESSAR/var/tmp/tika-1.6/tika-core/src/test/java/org/apache/tika/io/TikaInputStreamTest.java
/Users/fish/Praxa/TESSAR/var/tmp/tika-1.6/tika-core/src/test/java/org/apache/tika/sax/SerializerTest.java
/Users/fish/Praxa/TESSAR/var/tmp/tika-1.6/tika-core/src/test/java/org/apache/tika/io/TailStreamTest.java
/Users/fish/Praxa/TESSAR/var/tmp/tika-1.6/tika-core/src/test/java/org/apache/tika/language/ProfilingWriterTest.java
/Users/fish/Praxa/TESSAR/var/tmp/tika-1.6/tika-core/src/test/java/org/apache/tika/language/LanguageIdentifierTest.java
/Users/fish/Praxa/TESSAR/var/tmp/tika-1.6/tika-core/src/test/java/org/apache/tika/mime/CustomReaderTest.java
/Users/fish/Praxa/TESSAR/var/tmp/tika-1.6/tika-core/src/test/java/org/apache/tika/parser/CompositeParserTest.java
/Users/fish/Praxa/TESSAR/var/tmp/tika-1.6/tika-core/src/test/java/org/apache/tika/TikaDetectionTest.java
/Users/fish/Praxa/TESSAR/var/tmp/tika-1.6/tika-core/src/test/java/org/apache/tika/sax/xpath/XPathParserTest.java
/Users/fish/Praxa/TESSAR/var/tmp/tika-1.6/tika-core/src/test/java/org/apache/tika/mime/MimeTypesReaderTest.java
/Users/fish/Praxa/TESSAR/var/tmp/tika-1.6/tika-core/src/test/java/org/apache/tika/language/LanguageProfilerBuilderTest.java
/Users/fish/Praxa/TESSAR/var/tmp/tika-1.6/tika-core/src/test/java/org/apache/tika/language/LanguageProfileTest.java
/Users/fish/Praxa/TESSAR/var/tmp/tika-1.6/tika-core/src/test/java/org/apache/tika/metadata/TestMetadata.java
/Users/fish/Praxa/TESSAR/var/tmp/tika-1.6/tika-core/src/test/java/org/apache/tika/TikaIT.java
/Users/fish/Praxa/TESSAR/var/tmp/tika-1.6/tika-core/src/test/java/org/apache/tika/TypeDetectionBenchmark.java
/Users/fish/Praxa/TESSAR/var/tmp/tika-1.6/tika-core/src/test/java/org/apache/tika/fork/ForkTestParser.java
/Users/fish/Praxa/TESSAR/var/tmp/tika-1.6/tika-core/src/test/java/org/apache/tika/detect/NameDetectorTest.java
/Users/fish/Praxa/TESSAR/var/tmp/tika-1.6/tika-core/src/test/java/org/apache/tika/io/FilenameUtilsTest.java
/Users/fish/Praxa/TESSAR/var/tmp/tika-1.6/tika-core/src/test/java/org/apache/tika/mime/MediaTypeTest.java
