org/apache/tika/server/MetadataEP.class
org/apache/tika/server/TikaVersion.class
org/apache/tika/server/TikaServerCli.class
org/apache/tika/server/TikaResource$2.class
org/apache/tika/server/TikaWelcome.class
org/apache/tika/server/TikaResource$1.class
org/apache/tika/server/TikaWelcome$1.class
org/apache/tika/server/TikaParsers$ParserDetails.class
org/apache/tika/server/TikaParsers$1.class
org/apache/tika/server/TikaMimeTypes.class
org/apache/tika/server/TikaResource$4.class
org/apache/tika/server/TikaWelcome$Endpoint.class
org/apache/tika/server/CSVMessageBodyWriter.class
org/apache/tika/server/TikaParsers.class
org/apache/tika/server/TikaExceptionMapper.class
org/apache/tika/server/HTMLHelper.class
org/apache/tika/server/TikaDetectors.class
org/apache/tika/server/MetadataResource$1.class
org/apache/tika/server/MetadataResource.class
org/apache/tika/server/TikaParsers$ParserDetails$1.class
org/apache/tika/server/TarWriter.class
org/apache/tika/server/TikaLoggingFilter.class
org/apache/tika/server/TikaResource.class
org/apache/tika/server/UnpackerResource$MyEmbeddedDocumentExtractor.class
org/apache/tika/server/TikaMimeTypes$1.class
org/apache/tika/server/TikaResource$3.class
org/apache/tika/server/ZipWriter.class
org/apache/tika/server/RichTextContentHandler.class
org/apache/tika/server/UnpackerResource.class
org/apache/tika/server/DetectorResource.class
org/apache/tika/server/JSONMessageBodyWriter.class
org/apache/tika/server/TikaMimeTypes$MediaTypeDetails.class
