-------------------------------------------------------------------------------
Test set: org.apache.tika.xmp.TikaToXMPTest
-------------------------------------------------------------------------------
Tests run: 12, Failures: 0, Errors: 0, Skipped: 0, Time elapsed: 0.176 sec
